<?xml version="1.0" encoding="UTF-8" standalone="no"?>
<svg
   xmlns:dc="http://purl.org/dc/elements/1.1/"
   xmlns:cc="http://creativecommons.org/ns#"
   xmlns:rdf="http://www.w3.org/1999/02/22-rdf-syntax-ns#"
   xmlns:svg="http://www.w3.org/2000/svg"
   xmlns="http://www.w3.org/2000/svg"
   xmlns:sodipodi="http://sodipodi.sourceforge.net/DTD/sodipodi-0.dtd"
   xmlns:inkscape="http://www.inkscape.org/namespaces/inkscape"
   version="1.1"
   width="400"
   height="250"
   id="svg872"
   sodipodi:docname="groupselect-qr-code.svg"
   inkscape:version="0.92.4 5da689c313, 2019-01-14">
  <metadata
     id="metadata878">
    <rdf:RDF>
      <cc:Work
         rdf:about="">
        <dc:format>image/svg+xml</dc:format>
        <dc:type
           rdf:resource="http://purl.org/dc/dcmitype/StillImage" />
        <dc:title></dc:title>
      </cc:Work>
    </rdf:RDF>
  </metadata>
  <defs
     id="defs876" />
  <sodipodi:namedview
     pagecolor="#ffffff"
     bordercolor="#666666"
     borderopacity="1"
     objecttolerance="10"
     gridtolerance="10"
     guidetolerance="10"
     inkscape:pageopacity="0"
     inkscape:pageshadow="2"
     inkscape:window-width="1908"
     inkscape:window-height="1005"
     id="namedview874"
     showgrid="false"
     inkscape:zoom="2.36"
     inkscape:cx="196.8644"
     inkscape:cy="81.401438"
     inkscape:window-x="6"
     inkscape:window-y="69"
     inkscape:window-maximized="0"
     inkscape:current-layer="layer1" />
  <g
     inkscape:groupmode="layer"
     id="layer1"
     inkscape:label="Layer 1"
     style="display:inline">
    <rect
       style="fill:#ffffff"
       id="rect1753"
       width="400.42371"
       height="249.57628"
       x="-0.81583065"
       y="0.84745753" />
    <g
       id="g1751"
       transform="translate(2.362125,7.1525423)">
      <rect
         style="fill:#ffffff;shape-rendering:optimizeSpeed"
         id="rect2"
         height="200"
         width="200"
         y="1.6949152"
         x="97.033897" />
      <rect
         style="fill:#000000;shape-rendering:optimizeSpeed"
         id="rect4"
         height="6"
         width="6"
         y="14.694915"
         x="110.0339" />
      <rect
         style="fill:#000000;shape-rendering:optimizeSpeed"
         id="rect6"
         height="6"
         width="6"
         y="14.694915"
         x="116.0339" />
      <rect
         style="fill:#000000;shape-rendering:optimizeSpeed"
         id="rect8"
         height="6"
         width="6"
         y="14.694915"
         x="122.0339" />
      <rect
         style="fill:#000000;shape-rendering:optimizeSpeed"
         id="rect10"
         height="6"
         width="6"
         y="14.694915"
         x="128.03391" />
      <rect
         style="fill:#000000;shape-rendering:optimizeSpeed"
         id="rect12"
         height="6"
         width="6"
         y="14.694915"
         x="134.03391" />
      <rect
         style="fill:#000000;shape-rendering:optimizeSpeed"
         id="rect14"
         height="6"
         width="6"
         y="14.694915"
         x="140.03391" />
      <rect
         style="fill:#000000;shape-rendering:optimizeSpeed"
         id="rect16"
         height="6"
         width="6"
         y="14.694915"
         x="146.03391" />
      <rect
         style="fill:#000000;shape-rendering:optimizeSpeed"
         id="rect18"
         height="6"
         width="6"
         y="14.694915"
         x="164.03391" />
      <rect
         style="fill:#000000;shape-rendering:optimizeSpeed"
         id="rect20"
         height="6"
         width="6"
         y="14.694915"
         x="182.03391" />
      <rect
         style="fill:#000000;shape-rendering:optimizeSpeed"
         id="rect22"
         height="6"
         width="6"
         y="14.694915"
         x="194.03391" />
      <rect
         style="fill:#000000;shape-rendering:optimizeSpeed"
         id="rect24"
         height="6"
         width="6"
         y="14.694915"
         x="200.03391" />
      <rect
         style="fill:#000000;shape-rendering:optimizeSpeed"
         id="rect26"
         height="6"
         width="6"
         y="14.694915"
         x="212.03391" />
      <rect
         style="fill:#000000;shape-rendering:optimizeSpeed"
         id="rect28"
         height="6"
         width="6"
         y="14.694915"
         x="218.03391" />
      <rect
         style="fill:#000000;shape-rendering:optimizeSpeed"
         id="rect30"
         height="6"
         width="6"
         y="14.694915"
         x="224.03391" />
      <rect
         style="fill:#000000;shape-rendering:optimizeSpeed"
         id="rect32"
         height="6"
         width="6"
         y="14.694915"
         x="230.03391" />
      <rect
         style="fill:#000000;shape-rendering:optimizeSpeed"
         id="rect34"
         height="6"
         width="6"
         y="14.694915"
         x="242.03391" />
      <rect
         style="fill:#000000;shape-rendering:optimizeSpeed"
         id="rect36"
         height="6"
         width="6"
         y="14.694915"
         x="248.03391" />
      <rect
         style="fill:#000000;shape-rendering:optimizeSpeed"
         id="rect38"
         height="6"
         width="6"
         y="14.694915"
         x="254.03391" />
      <rect
         style="fill:#000000;shape-rendering:optimizeSpeed"
         id="rect40"
         height="6"
         width="6"
         y="14.694915"
         x="260.03391" />
      <rect
         style="fill:#000000;shape-rendering:optimizeSpeed"
         id="rect42"
         height="6"
         width="6"
         y="14.694915"
         x="266.03391" />
      <rect
         style="fill:#000000;shape-rendering:optimizeSpeed"
         id="rect44"
         height="6"
         width="6"
         y="14.694915"
         x="272.03391" />
      <rect
         style="fill:#000000;shape-rendering:optimizeSpeed"
         id="rect46"
         height="6"
         width="6"
         y="14.694915"
         x="278.03391" />
      <rect
         style="fill:#000000;shape-rendering:optimizeSpeed"
         id="rect48"
         height="6"
         width="6"
         y="20.694916"
         x="110.0339" />
      <rect
         style="fill:#000000;shape-rendering:optimizeSpeed"
         id="rect50"
         height="6"
         width="6"
         y="20.694916"
         x="146.03391" />
      <rect
         style="fill:#000000;shape-rendering:optimizeSpeed"
         id="rect52"
         height="6"
         width="6"
         y="20.694916"
         x="158.03391" />
      <rect
         style="fill:#000000;shape-rendering:optimizeSpeed"
         id="rect54"
         height="6"
         width="6"
         y="20.694916"
         x="176.03391" />
      <rect
         style="fill:#000000;shape-rendering:optimizeSpeed"
         id="rect56"
         height="6"
         width="6"
         y="20.694916"
         x="182.03391" />
      <rect
         style="fill:#000000;shape-rendering:optimizeSpeed"
         id="rect58"
         height="6"
         width="6"
         y="20.694916"
         x="188.03391" />
      <rect
         style="fill:#000000;shape-rendering:optimizeSpeed"
         id="rect60"
         height="6"
         width="6"
         y="20.694916"
         x="200.03391" />
      <rect
         style="fill:#000000;shape-rendering:optimizeSpeed"
         id="rect62"
         height="6"
         width="6"
         y="20.694916"
         x="218.03391" />
      <rect
         style="fill:#000000;shape-rendering:optimizeSpeed"
         id="rect64"
         height="6"
         width="6"
         y="20.694916"
         x="230.03391" />
      <rect
         style="fill:#000000;shape-rendering:optimizeSpeed"
         id="rect66"
         height="6"
         width="6"
         y="20.694916"
         x="242.03391" />
      <rect
         style="fill:#000000;shape-rendering:optimizeSpeed"
         id="rect68"
         height="6"
         width="6"
         y="20.694916"
         x="278.03391" />
      <rect
         style="fill:#000000;shape-rendering:optimizeSpeed"
         id="rect70"
         height="6"
         width="6"
         y="26.694916"
         x="110.0339" />
      <rect
         style="fill:#000000;shape-rendering:optimizeSpeed"
         id="rect72"
         height="6"
         width="6"
         y="26.694916"
         x="122.0339" />
      <rect
         style="fill:#000000;shape-rendering:optimizeSpeed"
         id="rect74"
         height="6"
         width="6"
         y="26.694916"
         x="128.03391" />
      <rect
         style="fill:#000000;shape-rendering:optimizeSpeed"
         id="rect76"
         height="6"
         width="6"
         y="26.694916"
         x="134.03391" />
      <rect
         style="fill:#000000;shape-rendering:optimizeSpeed"
         id="rect78"
         height="6"
         width="6"
         y="26.694916"
         x="146.03391" />
      <rect
         style="fill:#000000;shape-rendering:optimizeSpeed"
         id="rect80"
         height="6"
         width="6"
         y="26.694916"
         x="158.03391" />
      <rect
         style="fill:#000000;shape-rendering:optimizeSpeed"
         id="rect82"
         height="6"
         width="6"
         y="26.694916"
         x="164.03391" />
      <rect
         style="fill:#000000;shape-rendering:optimizeSpeed"
         id="rect84"
         height="6"
         width="6"
         y="26.694916"
         x="170.03391" />
      <rect
         style="fill:#000000;shape-rendering:optimizeSpeed"
         id="rect86"
         height="6"
         width="6"
         y="26.694916"
         x="176.03391" />
      <rect
         style="fill:#000000;shape-rendering:optimizeSpeed"
         id="rect88"
         height="6"
         width="6"
         y="26.694916"
         x="182.03391" />
      <rect
         style="fill:#000000;shape-rendering:optimizeSpeed"
         id="rect90"
         height="6"
         width="6"
         y="26.694916"
         x="194.03391" />
      <rect
         style="fill:#000000;shape-rendering:optimizeSpeed"
         id="rect92"
         height="6"
         width="6"
         y="26.694916"
         x="212.03391" />
      <rect
         style="fill:#000000;shape-rendering:optimizeSpeed"
         id="rect94"
         height="6"
         width="6"
         y="26.694916"
         x="218.03391" />
      <rect
         style="fill:#000000;shape-rendering:optimizeSpeed"
         id="rect96"
         height="6"
         width="6"
         y="26.694916"
         x="224.03391" />
      <rect
         style="fill:#000000;shape-rendering:optimizeSpeed"
         id="rect98"
         height="6"
         width="6"
         y="26.694916"
         x="242.03391" />
      <rect
         style="fill:#000000;shape-rendering:optimizeSpeed"
         id="rect100"
         height="6"
         width="6"
         y="26.694916"
         x="254.03391" />
      <rect
         style="fill:#000000;shape-rendering:optimizeSpeed"
         id="rect102"
         height="6"
         width="6"
         y="26.694916"
         x="260.03391" />
      <rect
         style="fill:#000000;shape-rendering:optimizeSpeed"
         id="rect104"
         height="6"
         width="6"
         y="26.694916"
         x="266.03391" />
      <rect
         style="fill:#000000;shape-rendering:optimizeSpeed"
         id="rect106"
         height="6"
         width="6"
         y="26.694916"
         x="278.03391" />
      <rect
         style="fill:#000000;shape-rendering:optimizeSpeed"
         id="rect108"
         height="6"
         width="6"
         y="32.694916"
         x="110.0339" />
      <rect
         style="fill:#000000;shape-rendering:optimizeSpeed"
         id="rect110"
         height="6"
         width="6"
         y="32.694916"
         x="122.0339" />
      <rect
         style="fill:#000000;shape-rendering:optimizeSpeed"
         id="rect112"
         height="6"
         width="6"
         y="32.694916"
         x="128.03391" />
      <rect
         style="fill:#000000;shape-rendering:optimizeSpeed"
         id="rect114"
         height="6"
         width="6"
         y="32.694916"
         x="134.03391" />
      <rect
         style="fill:#000000;shape-rendering:optimizeSpeed"
         id="rect116"
         height="6"
         width="6"
         y="32.694916"
         x="146.03391" />
      <rect
         style="fill:#000000;shape-rendering:optimizeSpeed"
         id="rect118"
         height="6"
         width="6"
         y="32.694916"
         x="164.03391" />
      <rect
         style="fill:#000000;shape-rendering:optimizeSpeed"
         id="rect120"
         height="6"
         width="6"
         y="32.694916"
         x="170.03391" />
      <rect
         style="fill:#000000;shape-rendering:optimizeSpeed"
         id="rect122"
         height="6"
         width="6"
         y="32.694916"
         x="176.03391" />
      <rect
         style="fill:#000000;shape-rendering:optimizeSpeed"
         id="rect124"
         height="6"
         width="6"
         y="32.694916"
         x="194.03391" />
      <rect
         style="fill:#000000;shape-rendering:optimizeSpeed"
         id="rect126"
         height="6"
         width="6"
         y="32.694916"
         x="200.03391" />
      <rect
         style="fill:#000000;shape-rendering:optimizeSpeed"
         id="rect128"
         height="6"
         width="6"
         y="32.694916"
         x="218.03391" />
      <rect
         style="fill:#000000;shape-rendering:optimizeSpeed"
         id="rect130"
         height="6"
         width="6"
         y="32.694916"
         x="224.03391" />
      <rect
         style="fill:#000000;shape-rendering:optimizeSpeed"
         id="rect132"
         height="6"
         width="6"
         y="32.694916"
         x="230.03391" />
      <rect
         style="fill:#000000;shape-rendering:optimizeSpeed"
         id="rect134"
         height="6"
         width="6"
         y="32.694916"
         x="242.03391" />
      <rect
         style="fill:#000000;shape-rendering:optimizeSpeed"
         id="rect136"
         height="6"
         width="6"
         y="32.694916"
         x="254.03391" />
      <rect
         style="fill:#000000;shape-rendering:optimizeSpeed"
         id="rect138"
         height="6"
         width="6"
         y="32.694916"
         x="260.03391" />
      <rect
         style="fill:#000000;shape-rendering:optimizeSpeed"
         id="rect140"
         height="6"
         width="6"
         y="32.694916"
         x="266.03391" />
      <rect
         style="fill:#000000;shape-rendering:optimizeSpeed"
         id="rect142"
         height="6"
         width="6"
         y="32.694916"
         x="278.03391" />
      <rect
         style="fill:#000000;shape-rendering:optimizeSpeed"
         id="rect144"
         height="6"
         width="6"
         y="38.694916"
         x="110.0339" />
      <rect
         style="fill:#000000;shape-rendering:optimizeSpeed"
         id="rect146"
         height="6"
         width="6"
         y="38.694916"
         x="122.0339" />
      <rect
         style="fill:#000000;shape-rendering:optimizeSpeed"
         id="rect148"
         height="6"
         width="6"
         y="38.694916"
         x="128.03391" />
      <rect
         style="fill:#000000;shape-rendering:optimizeSpeed"
         id="rect150"
         height="6"
         width="6"
         y="38.694916"
         x="134.03391" />
      <rect
         style="fill:#000000;shape-rendering:optimizeSpeed"
         id="rect152"
         height="6"
         width="6"
         y="38.694916"
         x="146.03391" />
      <rect
         style="fill:#000000;shape-rendering:optimizeSpeed"
         id="rect154"
         height="6"
         width="6"
         y="38.694916"
         x="158.03391" />
      <rect
         style="fill:#000000;shape-rendering:optimizeSpeed"
         id="rect156"
         height="6"
         width="6"
         y="38.694916"
         x="188.03391" />
      <rect
         style="fill:#000000;shape-rendering:optimizeSpeed"
         id="rect158"
         height="6"
         width="6"
         y="38.694916"
         x="200.03391" />
      <rect
         style="fill:#000000;shape-rendering:optimizeSpeed"
         id="rect160"
         height="6"
         width="6"
         y="38.694916"
         x="206.03391" />
      <rect
         style="fill:#000000;shape-rendering:optimizeSpeed"
         id="rect162"
         height="6"
         width="6"
         y="38.694916"
         x="218.03391" />
      <rect
         style="fill:#000000;shape-rendering:optimizeSpeed"
         id="rect164"
         height="6"
         width="6"
         y="38.694916"
         x="242.03391" />
      <rect
         style="fill:#000000;shape-rendering:optimizeSpeed"
         id="rect166"
         height="6"
         width="6"
         y="38.694916"
         x="254.03391" />
      <rect
         style="fill:#000000;shape-rendering:optimizeSpeed"
         id="rect168"
         height="6"
         width="6"
         y="38.694916"
         x="260.03391" />
      <rect
         style="fill:#000000;shape-rendering:optimizeSpeed"
         id="rect170"
         height="6"
         width="6"
         y="38.694916"
         x="266.03391" />
      <rect
         style="fill:#000000;shape-rendering:optimizeSpeed"
         id="rect172"
         height="6"
         width="6"
         y="38.694916"
         x="278.03391" />
      <rect
         style="fill:#000000;shape-rendering:optimizeSpeed"
         id="rect174"
         height="6"
         width="6"
         y="44.694916"
         x="110.0339" />
      <rect
         style="fill:#000000;shape-rendering:optimizeSpeed"
         id="rect176"
         height="6"
         width="6"
         y="44.694916"
         x="146.03391" />
      <rect
         style="fill:#000000;shape-rendering:optimizeSpeed"
         id="rect178"
         height="6"
         width="6"
         y="44.694916"
         x="158.03391" />
      <rect
         style="fill:#000000;shape-rendering:optimizeSpeed"
         id="rect180"
         height="6"
         width="6"
         y="44.694916"
         x="164.03391" />
      <rect
         style="fill:#000000;shape-rendering:optimizeSpeed"
         id="rect182"
         height="6"
         width="6"
         y="44.694916"
         x="176.03391" />
      <rect
         style="fill:#000000;shape-rendering:optimizeSpeed"
         id="rect184"
         height="6"
         width="6"
         y="44.694916"
         x="188.03391" />
      <rect
         style="fill:#000000;shape-rendering:optimizeSpeed"
         id="rect186"
         height="6"
         width="6"
         y="44.694916"
         x="200.03391" />
      <rect
         style="fill:#000000;shape-rendering:optimizeSpeed"
         id="rect188"
         height="6"
         width="6"
         y="44.694916"
         x="218.03391" />
      <rect
         style="fill:#000000;shape-rendering:optimizeSpeed"
         id="rect190"
         height="6"
         width="6"
         y="44.694916"
         x="224.03391" />
      <rect
         style="fill:#000000;shape-rendering:optimizeSpeed"
         id="rect192"
         height="6"
         width="6"
         y="44.694916"
         x="242.03391" />
      <rect
         style="fill:#000000;shape-rendering:optimizeSpeed"
         id="rect194"
         height="6"
         width="6"
         y="44.694916"
         x="278.03391" />
      <rect
         style="fill:#000000;shape-rendering:optimizeSpeed"
         id="rect196"
         height="6"
         width="6"
         y="50.694916"
         x="110.0339" />
      <rect
         style="fill:#000000;shape-rendering:optimizeSpeed"
         id="rect198"
         height="6"
         width="6"
         y="50.694916"
         x="116.0339" />
      <rect
         style="fill:#000000;shape-rendering:optimizeSpeed"
         id="rect200"
         height="6"
         width="6"
         y="50.694916"
         x="122.0339" />
      <rect
         style="fill:#000000;shape-rendering:optimizeSpeed"
         id="rect202"
         height="6"
         width="6"
         y="50.694916"
         x="128.03391" />
      <rect
         style="fill:#000000;shape-rendering:optimizeSpeed"
         id="rect204"
         height="6"
         width="6"
         y="50.694916"
         x="134.03391" />
      <rect
         style="fill:#000000;shape-rendering:optimizeSpeed"
         id="rect206"
         height="6"
         width="6"
         y="50.694916"
         x="140.03391" />
      <rect
         style="fill:#000000;shape-rendering:optimizeSpeed"
         id="rect208"
         height="6"
         width="6"
         y="50.694916"
         x="146.03391" />
      <rect
         style="fill:#000000;shape-rendering:optimizeSpeed"
         id="rect210"
         height="6"
         width="6"
         y="50.694916"
         x="158.03391" />
      <rect
         style="fill:#000000;shape-rendering:optimizeSpeed"
         id="rect212"
         height="6"
         width="6"
         y="50.694916"
         x="170.03391" />
      <rect
         style="fill:#000000;shape-rendering:optimizeSpeed"
         id="rect214"
         height="6"
         width="6"
         y="50.694916"
         x="182.03391" />
      <rect
         style="fill:#000000;shape-rendering:optimizeSpeed"
         id="rect216"
         height="6"
         width="6"
         y="50.694916"
         x="194.03391" />
      <rect
         style="fill:#000000;shape-rendering:optimizeSpeed"
         id="rect218"
         height="6"
         width="6"
         y="50.694916"
         x="206.03391" />
      <rect
         style="fill:#000000;shape-rendering:optimizeSpeed"
         id="rect220"
         height="6"
         width="6"
         y="50.694916"
         x="218.03391" />
      <rect
         style="fill:#000000;shape-rendering:optimizeSpeed"
         id="rect222"
         height="6"
         width="6"
         y="50.694916"
         x="230.03391" />
      <rect
         style="fill:#000000;shape-rendering:optimizeSpeed"
         id="rect224"
         height="6"
         width="6"
         y="50.694916"
         x="242.03391" />
      <rect
         style="fill:#000000;shape-rendering:optimizeSpeed"
         id="rect226"
         height="6"
         width="6"
         y="50.694916"
         x="248.03391" />
      <rect
         style="fill:#000000;shape-rendering:optimizeSpeed"
         id="rect228"
         height="6"
         width="6"
         y="50.694916"
         x="254.03391" />
      <rect
         style="fill:#000000;shape-rendering:optimizeSpeed"
         id="rect230"
         height="6"
         width="6"
         y="50.694916"
         x="260.03391" />
      <rect
         style="fill:#000000;shape-rendering:optimizeSpeed"
         id="rect232"
         height="6"
         width="6"
         y="50.694916"
         x="266.03391" />
      <rect
         style="fill:#000000;shape-rendering:optimizeSpeed"
         id="rect234"
         height="6"
         width="6"
         y="50.694916"
         x="272.03391" />
      <rect
         style="fill:#000000;shape-rendering:optimizeSpeed"
         id="rect236"
         height="6"
         width="6"
         y="50.694916"
         x="278.03391" />
      <rect
         style="fill:#000000;shape-rendering:optimizeSpeed"
         id="rect238"
         height="6"
         width="6"
         y="56.694916"
         x="158.03391" />
      <rect
         style="fill:#000000;shape-rendering:optimizeSpeed"
         id="rect240"
         height="6"
         width="6"
         y="56.694916"
         x="164.03391" />
      <rect
         style="fill:#000000;shape-rendering:optimizeSpeed"
         id="rect242"
         height="6"
         width="6"
         y="56.694916"
         x="182.03391" />
      <rect
         style="fill:#000000;shape-rendering:optimizeSpeed"
         id="rect244"
         height="6"
         width="6"
         y="56.694916"
         x="200.03391" />
      <rect
         style="fill:#000000;shape-rendering:optimizeSpeed"
         id="rect246"
         height="6"
         width="6"
         y="56.694916"
         x="212.03391" />
      <rect
         style="fill:#000000;shape-rendering:optimizeSpeed"
         id="rect248"
         height="6"
         width="6"
         y="56.694916"
         x="218.03391" />
      <rect
         style="fill:#000000;shape-rendering:optimizeSpeed"
         id="rect250"
         height="6"
         width="6"
         y="56.694916"
         x="230.03391" />
      <rect
         style="fill:#000000;shape-rendering:optimizeSpeed"
         id="rect252"
         height="6"
         width="6"
         y="62.694916"
         x="110.0339" />
      <rect
         style="fill:#000000;shape-rendering:optimizeSpeed"
         id="rect254"
         height="6"
         width="6"
         y="62.694916"
         x="116.0339" />
      <rect
         style="fill:#000000;shape-rendering:optimizeSpeed"
         id="rect256"
         height="6"
         width="6"
         y="62.694916"
         x="128.03391" />
      <rect
         style="fill:#000000;shape-rendering:optimizeSpeed"
         id="rect258"
         height="6"
         width="6"
         y="62.694916"
         x="146.03391" />
      <rect
         style="fill:#000000;shape-rendering:optimizeSpeed"
         id="rect260"
         height="6"
         width="6"
         y="62.694916"
         x="152.03391" />
      <rect
         style="fill:#000000;shape-rendering:optimizeSpeed"
         id="rect262"
         height="6"
         width="6"
         y="62.694916"
         x="170.03391" />
      <rect
         style="fill:#000000;shape-rendering:optimizeSpeed"
         id="rect264"
         height="6"
         width="6"
         y="62.694916"
         x="200.03391" />
      <rect
         style="fill:#000000;shape-rendering:optimizeSpeed"
         id="rect266"
         height="6"
         width="6"
         y="62.694916"
         x="206.03391" />
      <rect
         style="fill:#000000;shape-rendering:optimizeSpeed"
         id="rect268"
         height="6"
         width="6"
         y="62.694916"
         x="242.03391" />
      <rect
         style="fill:#000000;shape-rendering:optimizeSpeed"
         id="rect270"
         height="6"
         width="6"
         y="62.694916"
         x="248.03391" />
      <rect
         style="fill:#000000;shape-rendering:optimizeSpeed"
         id="rect272"
         height="6"
         width="6"
         y="62.694916"
         x="254.03391" />
      <rect
         style="fill:#000000;shape-rendering:optimizeSpeed"
         id="rect274"
         height="6"
         width="6"
         y="62.694916"
         x="266.03391" />
      <rect
         style="fill:#000000;shape-rendering:optimizeSpeed"
         id="rect276"
         height="6"
         width="6"
         y="62.694916"
         x="272.03391" />
      <rect
         style="fill:#000000;shape-rendering:optimizeSpeed"
         id="rect278"
         height="6"
         width="6"
         y="68.694916"
         x="122.0339" />
      <rect
         style="fill:#000000;shape-rendering:optimizeSpeed"
         id="rect280"
         height="6"
         width="6"
         y="68.694916"
         x="128.03391" />
      <rect
         style="fill:#000000;shape-rendering:optimizeSpeed"
         id="rect282"
         height="6"
         width="6"
         y="68.694916"
         x="134.03391" />
      <rect
         style="fill:#000000;shape-rendering:optimizeSpeed"
         id="rect284"
         height="6"
         width="6"
         y="68.694916"
         x="158.03391" />
      <rect
         style="fill:#000000;shape-rendering:optimizeSpeed"
         id="rect286"
         height="6"
         width="6"
         y="68.694916"
         x="170.03391" />
      <rect
         style="fill:#000000;shape-rendering:optimizeSpeed"
         id="rect288"
         height="6"
         width="6"
         y="68.694916"
         x="176.03391" />
      <rect
         style="fill:#000000;shape-rendering:optimizeSpeed"
         id="rect290"
         height="6"
         width="6"
         y="68.694916"
         x="206.03391" />
      <rect
         style="fill:#000000;shape-rendering:optimizeSpeed"
         id="rect292"
         height="6"
         width="6"
         y="68.694916"
         x="212.03391" />
      <rect
         style="fill:#000000;shape-rendering:optimizeSpeed"
         id="rect294"
         height="6"
         width="6"
         y="68.694916"
         x="230.03391" />
      <rect
         style="fill:#000000;shape-rendering:optimizeSpeed"
         id="rect296"
         height="6"
         width="6"
         y="68.694916"
         x="236.03391" />
      <rect
         style="fill:#000000;shape-rendering:optimizeSpeed"
         id="rect298"
         height="6"
         width="6"
         y="68.694916"
         x="242.03391" />
      <rect
         style="fill:#000000;shape-rendering:optimizeSpeed"
         id="rect300"
         height="6"
         width="6"
         y="68.694916"
         x="260.03391" />
      <rect
         style="fill:#000000;shape-rendering:optimizeSpeed"
         id="rect302"
         height="6"
         width="6"
         y="68.694916"
         x="278.03391" />
      <rect
         style="fill:#000000;shape-rendering:optimizeSpeed"
         id="rect304"
         height="6"
         width="6"
         y="74.694916"
         x="110.0339" />
      <rect
         style="fill:#000000;shape-rendering:optimizeSpeed"
         id="rect306"
         height="6"
         width="6"
         y="74.694916"
         x="128.03391" />
      <rect
         style="fill:#000000;shape-rendering:optimizeSpeed"
         id="rect308"
         height="6"
         width="6"
         y="74.694916"
         x="134.03391" />
      <rect
         style="fill:#000000;shape-rendering:optimizeSpeed"
         id="rect310"
         height="6"
         width="6"
         y="74.694916"
         x="146.03391" />
      <rect
         style="fill:#000000;shape-rendering:optimizeSpeed"
         id="rect312"
         height="6"
         width="6"
         y="74.694916"
         x="158.03391" />
      <rect
         style="fill:#000000;shape-rendering:optimizeSpeed"
         id="rect314"
         height="6"
         width="6"
         y="74.694916"
         x="164.03391" />
      <rect
         style="fill:#000000;shape-rendering:optimizeSpeed"
         id="rect316"
         height="6"
         width="6"
         y="74.694916"
         x="170.03391" />
      <rect
         style="fill:#000000;shape-rendering:optimizeSpeed"
         id="rect318"
         height="6"
         width="6"
         y="74.694916"
         x="206.03391" />
      <rect
         style="fill:#000000;shape-rendering:optimizeSpeed"
         id="rect320"
         height="6"
         width="6"
         y="74.694916"
         x="224.03391" />
      <rect
         style="fill:#000000;shape-rendering:optimizeSpeed"
         id="rect322"
         height="6"
         width="6"
         y="74.694916"
         x="230.03391" />
      <rect
         style="fill:#000000;shape-rendering:optimizeSpeed"
         id="rect324"
         height="6"
         width="6"
         y="74.694916"
         x="248.03391" />
      <rect
         style="fill:#000000;shape-rendering:optimizeSpeed"
         id="rect326"
         height="6"
         width="6"
         y="74.694916"
         x="260.03391" />
      <rect
         style="fill:#000000;shape-rendering:optimizeSpeed"
         id="rect328"
         height="6"
         width="6"
         y="74.694916"
         x="266.03391" />
      <rect
         style="fill:#000000;shape-rendering:optimizeSpeed"
         id="rect330"
         height="6"
         width="6"
         y="74.694916"
         x="272.03391" />
      <rect
         style="fill:#000000;shape-rendering:optimizeSpeed"
         id="rect332"
         height="6"
         width="6"
         y="80.694916"
         x="128.03391" />
      <rect
         style="fill:#000000;shape-rendering:optimizeSpeed"
         id="rect334"
         height="6"
         width="6"
         y="80.694916"
         x="134.03391" />
      <rect
         style="fill:#000000;shape-rendering:optimizeSpeed"
         id="rect336"
         height="6"
         width="6"
         y="80.694916"
         x="140.03391" />
      <rect
         style="fill:#000000;shape-rendering:optimizeSpeed"
         id="rect338"
         height="6"
         width="6"
         y="80.694916"
         x="152.03391" />
      <rect
         style="fill:#000000;shape-rendering:optimizeSpeed"
         id="rect340"
         height="6"
         width="6"
         y="80.694916"
         x="158.03391" />
      <rect
         style="fill:#000000;shape-rendering:optimizeSpeed"
         id="rect342"
         height="6"
         width="6"
         y="80.694916"
         x="194.03391" />
      <rect
         style="fill:#000000;shape-rendering:optimizeSpeed"
         id="rect344"
         height="6"
         width="6"
         y="80.694916"
         x="200.03391" />
      <rect
         style="fill:#000000;shape-rendering:optimizeSpeed"
         id="rect346"
         height="6"
         width="6"
         y="80.694916"
         x="206.03391" />
      <rect
         style="fill:#000000;shape-rendering:optimizeSpeed"
         id="rect348"
         height="6"
         width="6"
         y="80.694916"
         x="236.03391" />
      <rect
         style="fill:#000000;shape-rendering:optimizeSpeed"
         id="rect350"
         height="6"
         width="6"
         y="80.694916"
         x="242.03391" />
      <rect
         style="fill:#000000;shape-rendering:optimizeSpeed"
         id="rect352"
         height="6"
         width="6"
         y="80.694916"
         x="248.03391" />
      <rect
         style="fill:#000000;shape-rendering:optimizeSpeed"
         id="rect354"
         height="6"
         width="6"
         y="80.694916"
         x="254.03391" />
      <rect
         style="fill:#000000;shape-rendering:optimizeSpeed"
         id="rect356"
         height="6"
         width="6"
         y="80.694916"
         x="266.03391" />
      <rect
         style="fill:#000000;shape-rendering:optimizeSpeed"
         id="rect358"
         height="6"
         width="6"
         y="80.694916"
         x="272.03391" />
      <rect
         style="fill:#000000;shape-rendering:optimizeSpeed"
         id="rect360"
         height="6"
         width="6"
         y="86.694916"
         x="110.0339" />
      <rect
         style="fill:#000000;shape-rendering:optimizeSpeed"
         id="rect362"
         height="6"
         width="6"
         y="86.694916"
         x="116.0339" />
      <rect
         style="fill:#000000;shape-rendering:optimizeSpeed"
         id="rect364"
         height="6"
         width="6"
         y="86.694916"
         x="146.03391" />
      <rect
         style="fill:#000000;shape-rendering:optimizeSpeed"
         id="rect366"
         height="6"
         width="6"
         y="86.694916"
         x="152.03391" />
      <rect
         style="fill:#000000;shape-rendering:optimizeSpeed"
         id="rect368"
         height="6"
         width="6"
         y="86.694916"
         x="158.03391" />
      <rect
         style="fill:#000000;shape-rendering:optimizeSpeed"
         id="rect370"
         height="6"
         width="6"
         y="86.694916"
         x="182.03391" />
      <rect
         style="fill:#000000;shape-rendering:optimizeSpeed"
         id="rect372"
         height="6"
         width="6"
         y="86.694916"
         x="206.03391" />
      <rect
         style="fill:#000000;shape-rendering:optimizeSpeed"
         id="rect374"
         height="6"
         width="6"
         y="86.694916"
         x="212.03391" />
      <rect
         style="fill:#000000;shape-rendering:optimizeSpeed"
         id="rect376"
         height="6"
         width="6"
         y="86.694916"
         x="224.03391" />
      <rect
         style="fill:#000000;shape-rendering:optimizeSpeed"
         id="rect378"
         height="6"
         width="6"
         y="86.694916"
         x="230.03391" />
      <rect
         style="fill:#000000;shape-rendering:optimizeSpeed"
         id="rect380"
         height="6"
         width="6"
         y="86.694916"
         x="236.03391" />
      <rect
         style="fill:#000000;shape-rendering:optimizeSpeed"
         id="rect382"
         height="6"
         width="6"
         y="86.694916"
         x="242.03391" />
      <rect
         style="fill:#000000;shape-rendering:optimizeSpeed"
         id="rect384"
         height="6"
         width="6"
         y="86.694916"
         x="260.03391" />
      <rect
         style="fill:#000000;shape-rendering:optimizeSpeed"
         id="rect386"
         height="6"
         width="6"
         y="86.694916"
         x="272.03391" />
      <rect
         style="fill:#000000;shape-rendering:optimizeSpeed"
         id="rect388"
         height="6"
         width="6"
         y="86.694916"
         x="278.03391" />
      <rect
         style="fill:#000000;shape-rendering:optimizeSpeed"
         id="rect390"
         height="6"
         width="6"
         y="92.694916"
         x="116.0339" />
      <rect
         style="fill:#000000;shape-rendering:optimizeSpeed"
         id="rect392"
         height="6"
         width="6"
         y="92.694916"
         x="122.0339" />
      <rect
         style="fill:#000000;shape-rendering:optimizeSpeed"
         id="rect394"
         height="6"
         width="6"
         y="92.694916"
         x="128.03391" />
      <rect
         style="fill:#000000;shape-rendering:optimizeSpeed"
         id="rect396"
         height="6"
         width="6"
         y="92.694916"
         x="134.03391" />
      <rect
         style="fill:#000000;shape-rendering:optimizeSpeed"
         id="rect398"
         height="6"
         width="6"
         y="92.694916"
         x="152.03391" />
      <rect
         style="fill:#000000;shape-rendering:optimizeSpeed"
         id="rect400"
         height="6"
         width="6"
         y="92.694916"
         x="164.03391" />
      <rect
         style="fill:#000000;shape-rendering:optimizeSpeed"
         id="rect402"
         height="6"
         width="6"
         y="92.694916"
         x="170.03391" />
      <rect
         style="fill:#000000;shape-rendering:optimizeSpeed"
         id="rect404"
         height="6"
         width="6"
         y="92.694916"
         x="176.03391" />
      <rect
         style="fill:#000000;shape-rendering:optimizeSpeed"
         id="rect406"
         height="6"
         width="6"
         y="92.694916"
         x="182.03391" />
      <rect
         style="fill:#000000;shape-rendering:optimizeSpeed"
         id="rect408"
         height="6"
         width="6"
         y="92.694916"
         x="212.03391" />
      <rect
         style="fill:#000000;shape-rendering:optimizeSpeed"
         id="rect410"
         height="6"
         width="6"
         y="92.694916"
         x="218.03391" />
      <rect
         style="fill:#000000;shape-rendering:optimizeSpeed"
         id="rect412"
         height="6"
         width="6"
         y="92.694916"
         x="224.03391" />
      <rect
         style="fill:#000000;shape-rendering:optimizeSpeed"
         id="rect414"
         height="6"
         width="6"
         y="92.694916"
         x="230.03391" />
      <rect
         style="fill:#000000;shape-rendering:optimizeSpeed"
         id="rect416"
         height="6"
         width="6"
         y="92.694916"
         x="236.03391" />
      <rect
         style="fill:#000000;shape-rendering:optimizeSpeed"
         id="rect418"
         height="6"
         width="6"
         y="98.694916"
         x="110.0339" />
      <rect
         style="fill:#000000;shape-rendering:optimizeSpeed"
         id="rect420"
         height="6"
         width="6"
         y="98.694916"
         x="134.03391" />
      <rect
         style="fill:#000000;shape-rendering:optimizeSpeed"
         id="rect422"
         height="6"
         width="6"
         y="98.694916"
         x="140.03391" />
      <rect
         style="fill:#000000;shape-rendering:optimizeSpeed"
         id="rect424"
         height="6"
         width="6"
         y="98.694916"
         x="146.03391" />
      <rect
         style="fill:#000000;shape-rendering:optimizeSpeed"
         id="rect426"
         height="6"
         width="6"
         y="98.694916"
         x="152.03391" />
      <rect
         style="fill:#000000;shape-rendering:optimizeSpeed"
         id="rect428"
         height="6"
         width="6"
         y="98.694916"
         x="170.03391" />
      <rect
         style="fill:#000000;shape-rendering:optimizeSpeed"
         id="rect430"
         height="6"
         width="6"
         y="98.694916"
         x="182.03391" />
      <rect
         style="fill:#000000;shape-rendering:optimizeSpeed"
         id="rect432"
         height="6"
         width="6"
         y="98.694916"
         x="212.03391" />
      <rect
         style="fill:#000000;shape-rendering:optimizeSpeed"
         id="rect434"
         height="6"
         width="6"
         y="98.694916"
         x="230.03391" />
      <rect
         style="fill:#000000;shape-rendering:optimizeSpeed"
         id="rect436"
         height="6"
         width="6"
         y="98.694916"
         x="236.03391" />
      <rect
         style="fill:#000000;shape-rendering:optimizeSpeed"
         id="rect438"
         height="6"
         width="6"
         y="98.694916"
         x="260.03391" />
      <rect
         style="fill:#000000;shape-rendering:optimizeSpeed"
         id="rect440"
         height="6"
         width="6"
         y="98.694916"
         x="266.03391" />
      <rect
         style="fill:#000000;shape-rendering:optimizeSpeed"
         id="rect442"
         height="6"
         width="6"
         y="98.694916"
         x="272.03391" />
      <rect
         style="fill:#000000;shape-rendering:optimizeSpeed"
         id="rect444"
         height="6"
         width="6"
         y="98.694916"
         x="278.03391" />
      <rect
         style="fill:#000000;shape-rendering:optimizeSpeed"
         id="rect446"
         height="6"
         width="6"
         y="104.69492"
         x="110.0339" />
      <rect
         style="fill:#000000;shape-rendering:optimizeSpeed"
         id="rect448"
         height="6"
         width="6"
         y="104.69492"
         x="116.0339" />
      <rect
         style="fill:#000000;shape-rendering:optimizeSpeed"
         id="rect450"
         height="6"
         width="6"
         y="104.69492"
         x="122.0339" />
      <rect
         style="fill:#000000;shape-rendering:optimizeSpeed"
         id="rect452"
         height="6"
         width="6"
         y="104.69492"
         x="128.03391" />
      <rect
         style="fill:#000000;shape-rendering:optimizeSpeed"
         id="rect454"
         height="6"
         width="6"
         y="104.69492"
         x="140.03391" />
      <rect
         style="fill:#000000;shape-rendering:optimizeSpeed"
         id="rect456"
         height="6"
         width="6"
         y="104.69492"
         x="182.03391" />
      <rect
         style="fill:#000000;shape-rendering:optimizeSpeed"
         id="rect458"
         height="6"
         width="6"
         y="104.69492"
         x="188.03391" />
      <rect
         style="fill:#000000;shape-rendering:optimizeSpeed"
         id="rect460"
         height="6"
         width="6"
         y="104.69492"
         x="194.03391" />
      <rect
         style="fill:#000000;shape-rendering:optimizeSpeed"
         id="rect462"
         height="6"
         width="6"
         y="104.69492"
         x="212.03391" />
      <rect
         style="fill:#000000;shape-rendering:optimizeSpeed"
         id="rect464"
         height="6"
         width="6"
         y="104.69492"
         x="218.03391" />
      <rect
         style="fill:#000000;shape-rendering:optimizeSpeed"
         id="rect466"
         height="6"
         width="6"
         y="104.69492"
         x="224.03391" />
      <rect
         style="fill:#000000;shape-rendering:optimizeSpeed"
         id="rect468"
         height="6"
         width="6"
         y="104.69492"
         x="242.03391" />
      <rect
         style="fill:#000000;shape-rendering:optimizeSpeed"
         id="rect470"
         height="6"
         width="6"
         y="104.69492"
         x="260.03391" />
      <rect
         style="fill:#000000;shape-rendering:optimizeSpeed"
         id="rect472"
         height="6"
         width="6"
         y="104.69492"
         x="272.03391" />
      <rect
         style="fill:#000000;shape-rendering:optimizeSpeed"
         id="rect474"
         height="6"
         width="6"
         y="110.69492"
         x="116.0339" />
      <rect
         style="fill:#000000;shape-rendering:optimizeSpeed"
         id="rect476"
         height="6"
         width="6"
         y="110.69492"
         x="122.0339" />
      <rect
         style="fill:#000000;shape-rendering:optimizeSpeed"
         id="rect478"
         height="6"
         width="6"
         y="110.69492"
         x="146.03391" />
      <rect
         style="fill:#000000;shape-rendering:optimizeSpeed"
         id="rect480"
         height="6"
         width="6"
         y="110.69492"
         x="152.03391" />
      <rect
         style="fill:#000000;shape-rendering:optimizeSpeed"
         id="rect482"
         height="6"
         width="6"
         y="110.69492"
         x="158.03391" />
      <rect
         style="fill:#000000;shape-rendering:optimizeSpeed"
         id="rect484"
         height="6"
         width="6"
         y="110.69492"
         x="176.03391" />
      <rect
         style="fill:#000000;shape-rendering:optimizeSpeed"
         id="rect486"
         height="6"
         width="6"
         y="110.69492"
         x="188.03391" />
      <rect
         style="fill:#000000;shape-rendering:optimizeSpeed"
         id="rect488"
         height="6"
         width="6"
         y="110.69492"
         x="194.03391" />
      <rect
         style="fill:#000000;shape-rendering:optimizeSpeed"
         id="rect490"
         height="6"
         width="6"
         y="110.69492"
         x="206.03391" />
      <rect
         style="fill:#000000;shape-rendering:optimizeSpeed"
         id="rect492"
         height="6"
         width="6"
         y="110.69492"
         x="212.03391" />
      <rect
         style="fill:#000000;shape-rendering:optimizeSpeed"
         id="rect494"
         height="6"
         width="6"
         y="110.69492"
         x="218.03391" />
      <rect
         style="fill:#000000;shape-rendering:optimizeSpeed"
         id="rect496"
         height="6"
         width="6"
         y="110.69492"
         x="230.03391" />
      <rect
         style="fill:#000000;shape-rendering:optimizeSpeed"
         id="rect498"
         height="6"
         width="6"
         y="110.69492"
         x="236.03391" />
      <rect
         style="fill:#000000;shape-rendering:optimizeSpeed"
         id="rect500"
         height="6"
         width="6"
         y="110.69492"
         x="272.03391" />
      <rect
         style="fill:#000000;shape-rendering:optimizeSpeed"
         id="rect502"
         height="6"
         width="6"
         y="116.69492"
         x="122.0339" />
      <rect
         style="fill:#000000;shape-rendering:optimizeSpeed"
         id="rect504"
         height="6"
         width="6"
         y="116.69492"
         x="134.03391" />
      <rect
         style="fill:#000000;shape-rendering:optimizeSpeed"
         id="rect506"
         height="6"
         width="6"
         y="116.69492"
         x="158.03391" />
      <rect
         style="fill:#000000;shape-rendering:optimizeSpeed"
         id="rect508"
         height="6"
         width="6"
         y="116.69492"
         x="206.03391" />
      <rect
         style="fill:#000000;shape-rendering:optimizeSpeed"
         id="rect510"
         height="6"
         width="6"
         y="116.69492"
         x="212.03391" />
      <rect
         style="fill:#000000;shape-rendering:optimizeSpeed"
         id="rect512"
         height="6"
         width="6"
         y="116.69492"
         x="242.03391" />
      <rect
         style="fill:#000000;shape-rendering:optimizeSpeed"
         id="rect514"
         height="6"
         width="6"
         y="116.69492"
         x="248.03391" />
      <rect
         style="fill:#000000;shape-rendering:optimizeSpeed"
         id="rect516"
         height="6"
         width="6"
         y="116.69492"
         x="260.03391" />
      <rect
         style="fill:#000000;shape-rendering:optimizeSpeed"
         id="rect518"
         height="6"
         width="6"
         y="116.69492"
         x="278.03391" />
      <rect
         style="fill:#000000;shape-rendering:optimizeSpeed"
         id="rect520"
         height="6"
         width="6"
         y="122.69492"
         x="110.0339" />
      <rect
         style="fill:#000000;shape-rendering:optimizeSpeed"
         id="rect522"
         height="6"
         width="6"
         y="122.69492"
         x="122.0339" />
      <rect
         style="fill:#000000;shape-rendering:optimizeSpeed"
         id="rect524"
         height="6"
         width="6"
         y="122.69492"
         x="128.03391" />
      <rect
         style="fill:#000000;shape-rendering:optimizeSpeed"
         id="rect526"
         height="6"
         width="6"
         y="122.69492"
         x="134.03391" />
      <rect
         style="fill:#000000;shape-rendering:optimizeSpeed"
         id="rect528"
         height="6"
         width="6"
         y="122.69492"
         x="140.03391" />
      <rect
         style="fill:#000000;shape-rendering:optimizeSpeed"
         id="rect530"
         height="6"
         width="6"
         y="122.69492"
         x="146.03391" />
      <rect
         style="fill:#000000;shape-rendering:optimizeSpeed"
         id="rect532"
         height="6"
         width="6"
         y="122.69492"
         x="152.03391" />
      <rect
         style="fill:#000000;shape-rendering:optimizeSpeed"
         id="rect534"
         height="6"
         width="6"
         y="122.69492"
         x="164.03391" />
      <rect
         style="fill:#000000;shape-rendering:optimizeSpeed"
         id="rect536"
         height="6"
         width="6"
         y="122.69492"
         x="188.03391" />
      <rect
         style="fill:#000000;shape-rendering:optimizeSpeed"
         id="rect538"
         height="6"
         width="6"
         y="122.69492"
         x="206.03391" />
      <rect
         style="fill:#000000;shape-rendering:optimizeSpeed"
         id="rect540"
         height="6"
         width="6"
         y="122.69492"
         x="212.03391" />
      <rect
         style="fill:#000000;shape-rendering:optimizeSpeed"
         id="rect542"
         height="6"
         width="6"
         y="122.69492"
         x="236.03391" />
      <rect
         style="fill:#000000;shape-rendering:optimizeSpeed"
         id="rect544"
         height="6"
         width="6"
         y="122.69492"
         x="242.03391" />
      <rect
         style="fill:#000000;shape-rendering:optimizeSpeed"
         id="rect546"
         height="6"
         width="6"
         y="122.69492"
         x="254.03391" />
      <rect
         style="fill:#000000;shape-rendering:optimizeSpeed"
         id="rect548"
         height="6"
         width="6"
         y="122.69492"
         x="272.03391" />
      <rect
         style="fill:#000000;shape-rendering:optimizeSpeed"
         id="rect550"
         height="6"
         width="6"
         y="122.69492"
         x="278.03391" />
      <rect
         style="fill:#000000;shape-rendering:optimizeSpeed"
         id="rect552"
         height="6"
         width="6"
         y="128.69492"
         x="128.03391" />
      <rect
         style="fill:#000000;shape-rendering:optimizeSpeed"
         id="rect554"
         height="6"
         width="6"
         y="128.69492"
         x="134.03391" />
      <rect
         style="fill:#000000;shape-rendering:optimizeSpeed"
         id="rect556"
         height="6"
         width="6"
         y="128.69492"
         x="152.03391" />
      <rect
         style="fill:#000000;shape-rendering:optimizeSpeed"
         id="rect558"
         height="6"
         width="6"
         y="128.69492"
         x="158.03391" />
      <rect
         style="fill:#000000;shape-rendering:optimizeSpeed"
         id="rect560"
         height="6"
         width="6"
         y="128.69492"
         x="164.03391" />
      <rect
         style="fill:#000000;shape-rendering:optimizeSpeed"
         id="rect562"
         height="6"
         width="6"
         y="128.69492"
         x="176.03391" />
      <rect
         style="fill:#000000;shape-rendering:optimizeSpeed"
         id="rect564"
         height="6"
         width="6"
         y="128.69492"
         x="188.03391" />
      <rect
         style="fill:#000000;shape-rendering:optimizeSpeed"
         id="rect566"
         height="6"
         width="6"
         y="128.69492"
         x="200.03391" />
      <rect
         style="fill:#000000;shape-rendering:optimizeSpeed"
         id="rect568"
         height="6"
         width="6"
         y="128.69492"
         x="206.03391" />
      <rect
         style="fill:#000000;shape-rendering:optimizeSpeed"
         id="rect570"
         height="6"
         width="6"
         y="128.69492"
         x="212.03391" />
      <rect
         style="fill:#000000;shape-rendering:optimizeSpeed"
         id="rect572"
         height="6"
         width="6"
         y="128.69492"
         x="218.03391" />
      <rect
         style="fill:#000000;shape-rendering:optimizeSpeed"
         id="rect574"
         height="6"
         width="6"
         y="128.69492"
         x="230.03391" />
      <rect
         style="fill:#000000;shape-rendering:optimizeSpeed"
         id="rect576"
         height="6"
         width="6"
         y="128.69492"
         x="254.03391" />
      <rect
         style="fill:#000000;shape-rendering:optimizeSpeed"
         id="rect578"
         height="6"
         width="6"
         y="128.69492"
         x="272.03391" />
      <rect
         style="fill:#000000;shape-rendering:optimizeSpeed"
         id="rect580"
         height="6"
         width="6"
         y="128.69492"
         x="278.03391" />
      <rect
         style="fill:#000000;shape-rendering:optimizeSpeed"
         id="rect582"
         height="6"
         width="6"
         y="134.69492"
         x="110.0339" />
      <rect
         style="fill:#000000;shape-rendering:optimizeSpeed"
         id="rect584"
         height="6"
         width="6"
         y="134.69492"
         x="122.0339" />
      <rect
         style="fill:#000000;shape-rendering:optimizeSpeed"
         id="rect586"
         height="6"
         width="6"
         y="134.69492"
         x="128.03391" />
      <rect
         style="fill:#000000;shape-rendering:optimizeSpeed"
         id="rect588"
         height="6"
         width="6"
         y="134.69492"
         x="134.03391" />
      <rect
         style="fill:#000000;shape-rendering:optimizeSpeed"
         id="rect590"
         height="6"
         width="6"
         y="134.69492"
         x="146.03391" />
      <rect
         style="fill:#000000;shape-rendering:optimizeSpeed"
         id="rect592"
         height="6"
         width="6"
         y="134.69492"
         x="152.03391" />
      <rect
         style="fill:#000000;shape-rendering:optimizeSpeed"
         id="rect594"
         height="6"
         width="6"
         y="134.69492"
         x="158.03391" />
      <rect
         style="fill:#000000;shape-rendering:optimizeSpeed"
         id="rect596"
         height="6"
         width="6"
         y="134.69492"
         x="176.03391" />
      <rect
         style="fill:#000000;shape-rendering:optimizeSpeed"
         id="rect598"
         height="6"
         width="6"
         y="134.69492"
         x="182.03391" />
      <rect
         style="fill:#000000;shape-rendering:optimizeSpeed"
         id="rect600"
         height="6"
         width="6"
         y="134.69492"
         x="194.03391" />
      <rect
         style="fill:#000000;shape-rendering:optimizeSpeed"
         id="rect602"
         height="6"
         width="6"
         y="134.69492"
         x="224.03391" />
      <rect
         style="fill:#000000;shape-rendering:optimizeSpeed"
         id="rect604"
         height="6"
         width="6"
         y="134.69492"
         x="230.03391" />
      <rect
         style="fill:#000000;shape-rendering:optimizeSpeed"
         id="rect606"
         height="6"
         width="6"
         y="134.69492"
         x="236.03391" />
      <rect
         style="fill:#000000;shape-rendering:optimizeSpeed"
         id="rect608"
         height="6"
         width="6"
         y="134.69492"
         x="242.03391" />
      <rect
         style="fill:#000000;shape-rendering:optimizeSpeed"
         id="rect610"
         height="6"
         width="6"
         y="134.69492"
         x="248.03391" />
      <rect
         style="fill:#000000;shape-rendering:optimizeSpeed"
         id="rect612"
         height="6"
         width="6"
         y="134.69492"
         x="254.03391" />
      <rect
         style="fill:#000000;shape-rendering:optimizeSpeed"
         id="rect614"
         height="6"
         width="6"
         y="134.69492"
         x="266.03391" />
      <rect
         style="fill:#000000;shape-rendering:optimizeSpeed"
         id="rect616"
         height="6"
         width="6"
         y="140.69492"
         x="158.03391" />
      <rect
         style="fill:#000000;shape-rendering:optimizeSpeed"
         id="rect618"
         height="6"
         width="6"
         y="140.69492"
         x="164.03391" />
      <rect
         style="fill:#000000;shape-rendering:optimizeSpeed"
         id="rect620"
         height="6"
         width="6"
         y="140.69492"
         x="170.03391" />
      <rect
         style="fill:#000000;shape-rendering:optimizeSpeed"
         id="rect622"
         height="6"
         width="6"
         y="140.69492"
         x="176.03391" />
      <rect
         style="fill:#000000;shape-rendering:optimizeSpeed"
         id="rect624"
         height="6"
         width="6"
         y="140.69492"
         x="182.03391" />
      <rect
         style="fill:#000000;shape-rendering:optimizeSpeed"
         id="rect626"
         height="6"
         width="6"
         y="140.69492"
         x="188.03391" />
      <rect
         style="fill:#000000;shape-rendering:optimizeSpeed"
         id="rect628"
         height="6"
         width="6"
         y="140.69492"
         x="206.03391" />
      <rect
         style="fill:#000000;shape-rendering:optimizeSpeed"
         id="rect630"
         height="6"
         width="6"
         y="140.69492"
         x="212.03391" />
      <rect
         style="fill:#000000;shape-rendering:optimizeSpeed"
         id="rect632"
         height="6"
         width="6"
         y="140.69492"
         x="224.03391" />
      <rect
         style="fill:#000000;shape-rendering:optimizeSpeed"
         id="rect634"
         height="6"
         width="6"
         y="140.69492"
         x="230.03391" />
      <rect
         style="fill:#000000;shape-rendering:optimizeSpeed"
         id="rect636"
         height="6"
         width="6"
         y="140.69492"
         x="254.03391" />
      <rect
         style="fill:#000000;shape-rendering:optimizeSpeed"
         id="rect638"
         height="6"
         width="6"
         y="140.69492"
         x="266.03391" />
      <rect
         style="fill:#000000;shape-rendering:optimizeSpeed"
         id="rect640"
         height="6"
         width="6"
         y="140.69492"
         x="272.03391" />
      <rect
         style="fill:#000000;shape-rendering:optimizeSpeed"
         id="rect642"
         height="6"
         width="6"
         y="140.69492"
         x="278.03391" />
      <rect
         style="fill:#000000;shape-rendering:optimizeSpeed"
         id="rect644"
         height="6"
         width="6"
         y="146.69492"
         x="110.0339" />
      <rect
         style="fill:#000000;shape-rendering:optimizeSpeed"
         id="rect646"
         height="6"
         width="6"
         y="146.69492"
         x="116.0339" />
      <rect
         style="fill:#000000;shape-rendering:optimizeSpeed"
         id="rect648"
         height="6"
         width="6"
         y="146.69492"
         x="122.0339" />
      <rect
         style="fill:#000000;shape-rendering:optimizeSpeed"
         id="rect650"
         height="6"
         width="6"
         y="146.69492"
         x="128.03391" />
      <rect
         style="fill:#000000;shape-rendering:optimizeSpeed"
         id="rect652"
         height="6"
         width="6"
         y="146.69492"
         x="134.03391" />
      <rect
         style="fill:#000000;shape-rendering:optimizeSpeed"
         id="rect654"
         height="6"
         width="6"
         y="146.69492"
         x="140.03391" />
      <rect
         style="fill:#000000;shape-rendering:optimizeSpeed"
         id="rect656"
         height="6"
         width="6"
         y="146.69492"
         x="146.03391" />
      <rect
         style="fill:#000000;shape-rendering:optimizeSpeed"
         id="rect658"
         height="6"
         width="6"
         y="146.69492"
         x="158.03391" />
      <rect
         style="fill:#000000;shape-rendering:optimizeSpeed"
         id="rect660"
         height="6"
         width="6"
         y="146.69492"
         x="176.03391" />
      <rect
         style="fill:#000000;shape-rendering:optimizeSpeed"
         id="rect662"
         height="6"
         width="6"
         y="146.69492"
         x="182.03391" />
      <rect
         style="fill:#000000;shape-rendering:optimizeSpeed"
         id="rect664"
         height="6"
         width="6"
         y="146.69492"
         x="188.03391" />
      <rect
         style="fill:#000000;shape-rendering:optimizeSpeed"
         id="rect666"
         height="6"
         width="6"
         y="146.69492"
         x="194.03391" />
      <rect
         style="fill:#000000;shape-rendering:optimizeSpeed"
         id="rect668"
         height="6"
         width="6"
         y="146.69492"
         x="206.03391" />
      <rect
         style="fill:#000000;shape-rendering:optimizeSpeed"
         id="rect670"
         height="6"
         width="6"
         y="146.69492"
         x="212.03391" />
      <rect
         style="fill:#000000;shape-rendering:optimizeSpeed"
         id="rect672"
         height="6"
         width="6"
         y="146.69492"
         x="230.03391" />
      <rect
         style="fill:#000000;shape-rendering:optimizeSpeed"
         id="rect674"
         height="6"
         width="6"
         y="146.69492"
         x="242.03391" />
      <rect
         style="fill:#000000;shape-rendering:optimizeSpeed"
         id="rect676"
         height="6"
         width="6"
         y="146.69492"
         x="254.03391" />
      <rect
         style="fill:#000000;shape-rendering:optimizeSpeed"
         id="rect678"
         height="6"
         width="6"
         y="146.69492"
         x="272.03391" />
      <rect
         style="fill:#000000;shape-rendering:optimizeSpeed"
         id="rect680"
         height="6"
         width="6"
         y="152.69492"
         x="110.0339" />
      <rect
         style="fill:#000000;shape-rendering:optimizeSpeed"
         id="rect682"
         height="6"
         width="6"
         y="152.69492"
         x="146.03391" />
      <rect
         style="fill:#000000;shape-rendering:optimizeSpeed"
         id="rect684"
         height="6"
         width="6"
         y="152.69492"
         x="164.03391" />
      <rect
         style="fill:#000000;shape-rendering:optimizeSpeed"
         id="rect686"
         height="6"
         width="6"
         y="152.69492"
         x="170.03391" />
      <rect
         style="fill:#000000;shape-rendering:optimizeSpeed"
         id="rect688"
         height="6"
         width="6"
         y="152.69492"
         x="176.03391" />
      <rect
         style="fill:#000000;shape-rendering:optimizeSpeed"
         id="rect690"
         height="6"
         width="6"
         y="152.69492"
         x="182.03391" />
      <rect
         style="fill:#000000;shape-rendering:optimizeSpeed"
         id="rect692"
         height="6"
         width="6"
         y="152.69492"
         x="188.03391" />
      <rect
         style="fill:#000000;shape-rendering:optimizeSpeed"
         id="rect694"
         height="6"
         width="6"
         y="152.69492"
         x="200.03391" />
      <rect
         style="fill:#000000;shape-rendering:optimizeSpeed"
         id="rect696"
         height="6"
         width="6"
         y="152.69492"
         x="206.03391" />
      <rect
         style="fill:#000000;shape-rendering:optimizeSpeed"
         id="rect698"
         height="6"
         width="6"
         y="152.69492"
         x="218.03391" />
      <rect
         style="fill:#000000;shape-rendering:optimizeSpeed"
         id="rect700"
         height="6"
         width="6"
         y="152.69492"
         x="230.03391" />
      <rect
         style="fill:#000000;shape-rendering:optimizeSpeed"
         id="rect702"
         height="6"
         width="6"
         y="152.69492"
         x="254.03391" />
      <rect
         style="fill:#000000;shape-rendering:optimizeSpeed"
         id="rect704"
         height="6"
         width="6"
         y="152.69492"
         x="260.03391" />
      <rect
         style="fill:#000000;shape-rendering:optimizeSpeed"
         id="rect706"
         height="6"
         width="6"
         y="152.69492"
         x="266.03391" />
      <rect
         style="fill:#000000;shape-rendering:optimizeSpeed"
         id="rect708"
         height="6"
         width="6"
         y="152.69492"
         x="272.03391" />
      <rect
         style="fill:#000000;shape-rendering:optimizeSpeed"
         id="rect710"
         height="6"
         width="6"
         y="152.69492"
         x="278.03391" />
      <rect
         style="fill:#000000;shape-rendering:optimizeSpeed"
         id="rect712"
         height="6"
         width="6"
         y="158.69492"
         x="110.0339" />
      <rect
         style="fill:#000000;shape-rendering:optimizeSpeed"
         id="rect714"
         height="6"
         width="6"
         y="158.69492"
         x="122.0339" />
      <rect
         style="fill:#000000;shape-rendering:optimizeSpeed"
         id="rect716"
         height="6"
         width="6"
         y="158.69492"
         x="128.03391" />
      <rect
         style="fill:#000000;shape-rendering:optimizeSpeed"
         id="rect718"
         height="6"
         width="6"
         y="158.69492"
         x="134.03391" />
      <rect
         style="fill:#000000;shape-rendering:optimizeSpeed"
         id="rect720"
         height="6"
         width="6"
         y="158.69492"
         x="146.03391" />
      <rect
         style="fill:#000000;shape-rendering:optimizeSpeed"
         id="rect722"
         height="6"
         width="6"
         y="158.69492"
         x="170.03391" />
      <rect
         style="fill:#000000;shape-rendering:optimizeSpeed"
         id="rect724"
         height="6"
         width="6"
         y="158.69492"
         x="176.03391" />
      <rect
         style="fill:#000000;shape-rendering:optimizeSpeed"
         id="rect726"
         height="6"
         width="6"
         y="158.69492"
         x="194.03391" />
      <rect
         style="fill:#000000;shape-rendering:optimizeSpeed"
         id="rect728"
         height="6"
         width="6"
         y="158.69492"
         x="212.03391" />
      <rect
         style="fill:#000000;shape-rendering:optimizeSpeed"
         id="rect730"
         height="6"
         width="6"
         y="158.69492"
         x="230.03391" />
      <rect
         style="fill:#000000;shape-rendering:optimizeSpeed"
         id="rect732"
         height="6"
         width="6"
         y="158.69492"
         x="236.03391" />
      <rect
         style="fill:#000000;shape-rendering:optimizeSpeed"
         id="rect734"
         height="6"
         width="6"
         y="158.69492"
         x="242.03391" />
      <rect
         style="fill:#000000;shape-rendering:optimizeSpeed"
         id="rect736"
         height="6"
         width="6"
         y="158.69492"
         x="248.03391" />
      <rect
         style="fill:#000000;shape-rendering:optimizeSpeed"
         id="rect738"
         height="6"
         width="6"
         y="158.69492"
         x="254.03391" />
      <rect
         style="fill:#000000;shape-rendering:optimizeSpeed"
         id="rect740"
         height="6"
         width="6"
         y="158.69492"
         x="272.03391" />
      <rect
         style="fill:#000000;shape-rendering:optimizeSpeed"
         id="rect742"
         height="6"
         width="6"
         y="158.69492"
         x="278.03391" />
      <rect
         style="fill:#000000;shape-rendering:optimizeSpeed"
         id="rect744"
         height="6"
         width="6"
         y="164.69492"
         x="110.0339" />
      <rect
         style="fill:#000000;shape-rendering:optimizeSpeed"
         id="rect746"
         height="6"
         width="6"
         y="164.69492"
         x="122.0339" />
      <rect
         style="fill:#000000;shape-rendering:optimizeSpeed"
         id="rect748"
         height="6"
         width="6"
         y="164.69492"
         x="128.03391" />
      <rect
         style="fill:#000000;shape-rendering:optimizeSpeed"
         id="rect750"
         height="6"
         width="6"
         y="164.69492"
         x="134.03391" />
      <rect
         style="fill:#000000;shape-rendering:optimizeSpeed"
         id="rect752"
         height="6"
         width="6"
         y="164.69492"
         x="146.03391" />
      <rect
         style="fill:#000000;shape-rendering:optimizeSpeed"
         id="rect754"
         height="6"
         width="6"
         y="164.69492"
         x="158.03391" />
      <rect
         style="fill:#000000;shape-rendering:optimizeSpeed"
         id="rect756"
         height="6"
         width="6"
         y="164.69492"
         x="170.03391" />
      <rect
         style="fill:#000000;shape-rendering:optimizeSpeed"
         id="rect758"
         height="6"
         width="6"
         y="164.69492"
         x="176.03391" />
      <rect
         style="fill:#000000;shape-rendering:optimizeSpeed"
         id="rect760"
         height="6"
         width="6"
         y="164.69492"
         x="188.03391" />
      <rect
         style="fill:#000000;shape-rendering:optimizeSpeed"
         id="rect762"
         height="6"
         width="6"
         y="164.69492"
         x="194.03391" />
      <rect
         style="fill:#000000;shape-rendering:optimizeSpeed"
         id="rect764"
         height="6"
         width="6"
         y="164.69492"
         x="212.03391" />
      <rect
         style="fill:#000000;shape-rendering:optimizeSpeed"
         id="rect766"
         height="6"
         width="6"
         y="164.69492"
         x="218.03391" />
      <rect
         style="fill:#000000;shape-rendering:optimizeSpeed"
         id="rect768"
         height="6"
         width="6"
         y="164.69492"
         x="230.03391" />
      <rect
         style="fill:#000000;shape-rendering:optimizeSpeed"
         id="rect770"
         height="6"
         width="6"
         y="164.69492"
         x="242.03391" />
      <rect
         style="fill:#000000;shape-rendering:optimizeSpeed"
         id="rect772"
         height="6"
         width="6"
         y="164.69492"
         x="248.03391" />
      <rect
         style="fill:#000000;shape-rendering:optimizeSpeed"
         id="rect774"
         height="6"
         width="6"
         y="164.69492"
         x="254.03391" />
      <rect
         style="fill:#000000;shape-rendering:optimizeSpeed"
         id="rect776"
         height="6"
         width="6"
         y="164.69492"
         x="260.03391" />
      <rect
         style="fill:#000000;shape-rendering:optimizeSpeed"
         id="rect778"
         height="6"
         width="6"
         y="164.69492"
         x="266.03391" />
      <rect
         style="fill:#000000;shape-rendering:optimizeSpeed"
         id="rect780"
         height="6"
         width="6"
         y="164.69492"
         x="272.03391" />
      <rect
         style="fill:#000000;shape-rendering:optimizeSpeed"
         id="rect782"
         height="6"
         width="6"
         y="170.69492"
         x="110.0339" />
      <rect
         style="fill:#000000;shape-rendering:optimizeSpeed"
         id="rect784"
         height="6"
         width="6"
         y="170.69492"
         x="122.0339" />
      <rect
         style="fill:#000000;shape-rendering:optimizeSpeed"
         id="rect786"
         height="6"
         width="6"
         y="170.69492"
         x="128.03391" />
      <rect
         style="fill:#000000;shape-rendering:optimizeSpeed"
         id="rect788"
         height="6"
         width="6"
         y="170.69492"
         x="134.03391" />
      <rect
         style="fill:#000000;shape-rendering:optimizeSpeed"
         id="rect790"
         height="6"
         width="6"
         y="170.69492"
         x="146.03391" />
      <rect
         style="fill:#000000;shape-rendering:optimizeSpeed"
         id="rect792"
         height="6"
         width="6"
         y="170.69492"
         x="170.03391" />
      <rect
         style="fill:#000000;shape-rendering:optimizeSpeed"
         id="rect794"
         height="6"
         width="6"
         y="170.69492"
         x="176.03391" />
      <rect
         style="fill:#000000;shape-rendering:optimizeSpeed"
         id="rect796"
         height="6"
         width="6"
         y="170.69492"
         x="188.03391" />
      <rect
         style="fill:#000000;shape-rendering:optimizeSpeed"
         id="rect798"
         height="6"
         width="6"
         y="170.69492"
         x="194.03391" />
      <rect
         style="fill:#000000;shape-rendering:optimizeSpeed"
         id="rect800"
         height="6"
         width="6"
         y="170.69492"
         x="218.03391" />
      <rect
         style="fill:#000000;shape-rendering:optimizeSpeed"
         id="rect802"
         height="6"
         width="6"
         y="170.69492"
         x="224.03391" />
      <rect
         style="fill:#000000;shape-rendering:optimizeSpeed"
         id="rect804"
         height="6"
         width="6"
         y="170.69492"
         x="230.03391" />
      <rect
         style="fill:#000000;shape-rendering:optimizeSpeed"
         id="rect806"
         height="6"
         width="6"
         y="170.69492"
         x="254.03391" />
      <rect
         style="fill:#000000;shape-rendering:optimizeSpeed"
         id="rect808"
         height="6"
         width="6"
         y="170.69492"
         x="260.03391" />
      <rect
         style="fill:#000000;shape-rendering:optimizeSpeed"
         id="rect810"
         height="6"
         width="6"
         y="170.69492"
         x="266.03391" />
      <rect
         style="fill:#000000;shape-rendering:optimizeSpeed"
         id="rect812"
         height="6"
         width="6"
         y="170.69492"
         x="278.03391" />
      <rect
         style="fill:#000000;shape-rendering:optimizeSpeed"
         id="rect814"
         height="6"
         width="6"
         y="176.69492"
         x="110.0339" />
      <rect
         style="fill:#000000;shape-rendering:optimizeSpeed"
         id="rect816"
         height="6"
         width="6"
         y="176.69492"
         x="146.03391" />
      <rect
         style="fill:#000000;shape-rendering:optimizeSpeed"
         id="rect818"
         height="6"
         width="6"
         y="176.69492"
         x="158.03391" />
      <rect
         style="fill:#000000;shape-rendering:optimizeSpeed"
         id="rect820"
         height="6"
         width="6"
         y="176.69492"
         x="170.03391" />
      <rect
         style="fill:#000000;shape-rendering:optimizeSpeed"
         id="rect822"
         height="6"
         width="6"
         y="176.69492"
         x="176.03391" />
      <rect
         style="fill:#000000;shape-rendering:optimizeSpeed"
         id="rect824"
         height="6"
         width="6"
         y="176.69492"
         x="206.03391" />
      <rect
         style="fill:#000000;shape-rendering:optimizeSpeed"
         id="rect826"
         height="6"
         width="6"
         y="176.69492"
         x="212.03391" />
      <rect
         style="fill:#000000;shape-rendering:optimizeSpeed"
         id="rect828"
         height="6"
         width="6"
         y="176.69492"
         x="224.03391" />
      <rect
         style="fill:#000000;shape-rendering:optimizeSpeed"
         id="rect830"
         height="6"
         width="6"
         y="176.69492"
         x="230.03391" />
      <rect
         style="fill:#000000;shape-rendering:optimizeSpeed"
         id="rect832"
         height="6"
         width="6"
         y="176.69492"
         x="242.03391" />
      <rect
         style="fill:#000000;shape-rendering:optimizeSpeed"
         id="rect834"
         height="6"
         width="6"
         y="176.69492"
         x="272.03391" />
      <rect
         style="fill:#000000;shape-rendering:optimizeSpeed"
         id="rect836"
         height="6"
         width="6"
         y="182.69492"
         x="110.0339" />
      <rect
         style="fill:#000000;shape-rendering:optimizeSpeed"
         id="rect838"
         height="6"
         width="6"
         y="182.69492"
         x="116.0339" />
      <rect
         style="fill:#000000;shape-rendering:optimizeSpeed"
         id="rect840"
         height="6"
         width="6"
         y="182.69492"
         x="122.0339" />
      <rect
         style="fill:#000000;shape-rendering:optimizeSpeed"
         id="rect842"
         height="6"
         width="6"
         y="182.69492"
         x="128.03391" />
      <rect
         style="fill:#000000;shape-rendering:optimizeSpeed"
         id="rect844"
         height="6"
         width="6"
         y="182.69492"
         x="134.03391" />
      <rect
         style="fill:#000000;shape-rendering:optimizeSpeed"
         id="rect846"
         height="6"
         width="6"
         y="182.69492"
         x="140.03391" />
      <rect
         style="fill:#000000;shape-rendering:optimizeSpeed"
         id="rect848"
         height="6"
         width="6"
         y="182.69492"
         x="146.03391" />
      <rect
         style="fill:#000000;shape-rendering:optimizeSpeed"
         id="rect850"
         height="6"
         width="6"
         y="182.69492"
         x="158.03391" />
      <rect
         style="fill:#000000;shape-rendering:optimizeSpeed"
         id="rect852"
         height="6"
         width="6"
         y="182.69492"
         x="170.03391" />
      <rect
         style="fill:#000000;shape-rendering:optimizeSpeed"
         id="rect854"
         height="6"
         width="6"
         y="182.69492"
         x="182.03391" />
      <rect
         style="fill:#000000;shape-rendering:optimizeSpeed"
         id="rect856"
         height="6"
         width="6"
         y="182.69492"
         x="188.03391" />
      <rect
         style="fill:#000000;shape-rendering:optimizeSpeed"
         id="rect858"
         height="6"
         width="6"
         y="182.69492"
         x="200.03391" />
      <rect
         style="fill:#000000;shape-rendering:optimizeSpeed"
         id="rect860"
         height="6"
         width="6"
         y="182.69492"
         x="212.03391" />
      <rect
         style="fill:#000000;shape-rendering:optimizeSpeed"
         id="rect862"
         height="6"
         width="6"
         y="182.69492"
         x="224.03391" />
      <rect
         style="fill:#000000;shape-rendering:optimizeSpeed"
         id="rect864"
         height="6"
         width="6"
         y="182.69492"
         x="230.03391" />
      <rect
         style="fill:#000000;shape-rendering:optimizeSpeed"
         id="rect866"
         height="6"
         width="6"
         y="182.69492"
         x="254.03391" />
      <rect
         style="fill:#000000;shape-rendering:optimizeSpeed"
         id="rect868"
         height="6"
         width="6"
         y="182.69492"
         x="260.03391" />
      <rect
         style="fill:#000000;shape-rendering:optimizeSpeed"
         id="rect870"
         height="6"
         width="6"
         y="182.69492"
         x="272.03391" />
    </g>
    <text
       xml:space="preserve"
       style="font-style:normal;font-weight:normal;font-size:40px;line-height:1.25;font-family:sans-serif;letter-spacing:0px;word-spacing:0px;fill:#000000;fill-opacity:1;stroke:none"
       x="21.605366"
       y="227.96609"
       id="text1759"><tspan
         sodipodi:role="line"
         id="tspan1757"
         x="21.605366"
         y="227.96609"
         style="font-style:normal;font-variant:normal;font-weight:normal;font-stretch:normal;font-size:18.66666603px;font-family:Iosevka;-inkscape-font-specification:Iosevka">https://algobowl.mines.edu/groupselect</tspan></text>
  </g>
</svg>
